\select@language {russian}
\contentsline {section}{\Russian \CYRV \CYRV \CYRE \CYRD \CYRE \CYRN \CYRI \CYRE }{4}{section*.1}
\contentsline {section}{\numberline {1}\IeC {\CYRT }\IeC {\cyre }\IeC {\cyro }\IeC {\cyrr }\IeC {\cyre }\IeC {\cyrt }\IeC {\cyri }\IeC {\cyrch }\IeC {\cyre }\IeC {\cyrs }\IeC {\cyrk }\IeC {\cyri }\IeC {\cyre } \IeC {\cyrs }\IeC {\cyrv }\IeC {\cyre }\IeC {\cyrd }\IeC {\cyre }\IeC {\cyrn }\IeC {\cyri }\IeC {\cyrya }}{5}{section.1}
\contentsline {subsection}{\numberline {1.1}\IeC {\CYRU }\IeC {\cyrs }\IeC {\cyrl }\IeC {\cyro }\IeC {\cyrv }\IeC {\cyri }\IeC {\cyrya } \IeC {\cyrs }\IeC {\cyru }\IeC {\cyrshch }\IeC {\cyre }\IeC {\cyrs }\IeC {\cyrt }\IeC {\cyrv }\IeC {\cyro }\IeC {\cyrv }\IeC {\cyra }\IeC {\cyrn }\IeC {\cyri }\IeC {\cyrya } \IeC {\cyrerev }\IeC {\cyrishrt }\IeC {\cyrl }\IeC {\cyre }\IeC {\cyrr }\IeC {\cyro }\IeC {\cyrv }\IeC {\cyra } \IeC {\cyrc }\IeC {\cyri }\IeC {\cyrk }\IeC {\cyrl }\IeC {\cyra } \IeC {\cyrv } \IeC {\cyro }\IeC {\cyrr }\IeC {\cyri }\IeC {\cyre }\IeC {\cyrn }\IeC {\cyrt }\IeC {\cyri }\IeC {\cyrr }\IeC {\cyro }\IeC {\cyrv }\IeC {\cyra }\IeC {\cyrn }\IeC {\cyrn }\IeC {\cyro }\IeC {\cyrm } \IeC {\cyrg }\IeC {\cyrr }\IeC {\cyra }\IeC {\cyrf }\IeC {\cyre }}{5}{subsection.1.1}
\contentsline {subsection}{\numberline {1.2}\IeC {\CYRU }\IeC {\cyrs }\IeC {\cyrl }\IeC {\cyro }\IeC {\cyrv }\IeC {\cyri }\IeC {\cyrya } \IeC {\cyrs }\IeC {\cyru }\IeC {\cyrshch }\IeC {\cyre }\IeC {\cyrs }\IeC {\cyrt }\IeC {\cyrv }\IeC {\cyro }\IeC {\cyrv }\IeC {\cyra }\IeC {\cyrn }\IeC {\cyri }\IeC {\cyrya } \IeC {\cyrerev }\IeC {\cyrishrt }\IeC {\cyrl }\IeC {\cyre }\IeC {\cyrr }\IeC {\cyro }\IeC {\cyrv }\IeC {\cyra } \IeC {\cyrc }\IeC {\cyri }\IeC {\cyrk }\IeC {\cyrl }\IeC {\cyra } \IeC {\cyri } \IeC {\cyrerev }\IeC {\cyrishrt }\IeC {\cyrl }\IeC {\cyre }\IeC {\cyrr }\IeC {\cyro }\IeC {\cyrv }\IeC {\cyra } \IeC {\cyrp }\IeC {\cyru }\IeC {\cyrt }\IeC {\cyri } \IeC {\cyrv } \IeC {\cyrn }\IeC {\cyre }\IeC {\cyro }\IeC {\cyrr }\IeC {\cyri }\IeC {\cyre }\IeC {\cyrn }\IeC {\cyrt }\IeC {\cyri }\IeC {\cyrr }\IeC {\cyro }\IeC {\cyrv }\IeC {\cyra }\IeC {\cyrn }\IeC {\cyrn }\IeC {\cyro }\IeC {\cyrm } \IeC {\cyrg }\IeC {\cyrr }\IeC {\cyra }\IeC {\cyrf }\IeC {\cyre }}{6}{subsection.1.2}
\contentsline {subsection}{\numberline {1.3}\IeC {\CYRA }\IeC {\cyrl }\IeC {\cyrg }\IeC {\cyro }\IeC {\cyrr }\IeC {\cyri }\IeC {\cyrt }\IeC {\cyrm } \IeC {\CYRF }\IeC {\cyrl }\IeC {\cyre }\IeC {\cyrr }\IeC {\cyri }}{6}{subsection.1.3}
\contentsline {section}{\numberline {2}\IeC {\CYRP }\IeC {\cyrr }\IeC {\cyri }\IeC {\cyrm }\IeC {\cyre }\IeC {\cyrr }\IeC {\cyrery } \IeC {\cyrz }\IeC {\cyra }\IeC {\cyrd }\IeC {\cyra }\IeC {\cyrch } \IeC {\cyri } \IeC {\cyri }\IeC {\cyrh } \IeC {\cyrr }\IeC {\cyre }\IeC {\cyrsh }\IeC {\cyre }\IeC {\cyrn }\IeC {\cyri }\IeC {\cyre }}{8}{section.2}
\contentsline {subsection}{\numberline {2.1}\IeC {\CYRP }\IeC {\cyrr }\IeC {\cyro }\IeC {\cyrv }\IeC {\cyre }\IeC {\cyrr }\IeC {\cyrk }\IeC {\cyra } \IeC {\cyrg }\IeC {\cyrr }\IeC {\cyra }\IeC {\cyrf }\IeC {\cyra } \IeC {\cyrn }\IeC {\cyra } \IeC {\cyrp }\IeC {\cyro }\IeC {\cyrl }\IeC {\cyru }\IeC {\cyrerev }\IeC {\cyrishrt }\IeC {\cyrl }\IeC {\cyre }\IeC {\cyrr }\IeC {\cyro }\IeC {\cyrv }\IeC {\cyro }\IeC {\cyrs }\IeC {\cyrt }\IeC {\cyrsftsn }}{8}{subsection.2.1}
\contentsline {subsection}{\numberline {2.2}\IeC {\CYRP }\IeC {\cyrr }\IeC {\cyro }\IeC {\cyrv }\IeC {\cyre }\IeC {\cyrr }\IeC {\cyrk }\IeC {\cyra } \IeC {\cyro }\IeC {\cyrr }\IeC {\cyrg }\IeC {\cyrr }\IeC {\cyra }\IeC {\cyrf }\IeC {\cyra } \IeC {\cyrn }\IeC {\cyra } \IeC {\cyrp }\IeC {\cyro }\IeC {\cyrl }\IeC {\cyru }\IeC {\cyrerev }\IeC {\cyrishrt }\IeC {\cyrl }\IeC {\cyre }\IeC {\cyrr }\IeC {\cyro }\IeC {\cyrv }\IeC {\cyro }\IeC {\cyrs }\IeC {\cyrt }\IeC {\cyrsftsn }}{8}{subsection.2.2}
\contentsline {subsection}{\numberline {2.3}\IeC {\CYREREV }\IeC {\cyrishrt }\IeC {\cyrl }\IeC {\cyre }\IeC {\cyrr }\IeC {\cyro }\IeC {\cyrv } \IeC {\cyrp }\IeC {\cyru }\IeC {\cyrt }\IeC {\cyrsftsn }}{9}{subsection.2.3}
\contentsline {section}{\Russian \CYRZ \CYRA \CYRK \CYRL \CYRYU \CYRCH \CYRE \CYRN \CYRI \CYRE }{11}{section*.3}
\contentsline {section}{\Russian \CYRS \CYRP \CYRI \CYRS \CYRO \CYRK \ \CYRI \CYRS \CYRP \CYRO \CYRL \CYRSFTSN \CYRZ \CYRO \CYRV \CYRA \CYRN \CYRN \CYRERY \CYRH \ \CYRI \CYRS \CYRT \CYRO \CYRCH \CYRN \CYRI \CYRK \CYRO \CYRV }{12}{section*.4}
\redeflsection 
\ttl@change@i {\@ne }{section}{3ex}{\hspace {-3ex}}{\appendixname ~\thecontentslabel \hspace {2ex}}{\hspace {2.3em}}{\titlerule *[0.98ex]{.}\contentspage }\relax 
\ttl@change@v {section}{}{}{}\relax 
\contentsline {section}{\numberline {\CYRA }\IeC {\CYRP }\IeC {\cyrr }\IeC {\cyro }\IeC {\cyrg }\IeC {\cyrr }\IeC {\cyra }\IeC {\cyrm }\IeC {\cyrm }\IeC {\cyrn }\IeC {\cyrery }\IeC {\cyrishrt } \IeC {\cyrk }\IeC {\cyro }\IeC {\cyrd } \IeC {\cyrz }\IeC {\cyra }\IeC {\cyrd }\IeC {\cyra }\IeC {\cyrch }\IeC {\cyri } <<\IeC {\CYRP }\IeC {\cyrr }\IeC {\cyro }\IeC {\cyrv }\IeC {\cyre }\IeC {\cyrr }\IeC {\cyrk }\IeC {\cyra } \IeC {\cyrg }\IeC {\cyrr }\IeC {\cyra }\IeC {\cyrf }\IeC {\cyra } \IeC {\cyrn }\IeC {\cyra } \IeC {\cyrp }\IeC {\cyro }\IeC {\cyrl }\IeC {\cyru }\IeC {\cyrerev }\IeC {\cyrishrt }\IeC {\cyrl }\IeC {\cyre }\IeC {\cyrr }\IeC {\cyro }\IeC {\cyrv }\IeC {\cyro }\IeC {\cyrs }\IeC {\cyrt }\IeC {\cyrsftsn }>>}{13}{appendix.A}
\contentsline {section}{\numberline {\CYRB }\IeC {\CYRP }\IeC {\cyrr }\IeC {\cyro }\IeC {\cyrg }\IeC {\cyrr }\IeC {\cyra }\IeC {\cyrm }\IeC {\cyrm }\IeC {\cyrn }\IeC {\cyrery }\IeC {\cyrishrt } \IeC {\cyrk }\IeC {\cyro }\IeC {\cyrd } \IeC {\cyrz }\IeC {\cyra }\IeC {\cyrd }\IeC {\cyra }\IeC {\cyrch }\IeC {\cyri } <<\IeC {\CYRP }\IeC {\cyrr }\IeC {\cyro }\IeC {\cyrv }\IeC {\cyre }\IeC {\cyrr }\IeC {\cyrk }\IeC {\cyra } \IeC {\cyro }\IeC {\cyrr }\IeC {\cyrg }\IeC {\cyrr }\IeC {\cyra }\IeC {\cyrf }\IeC {\cyra } \IeC {\cyrn }\IeC {\cyra } \IeC {\cyrp }\IeC {\cyro }\IeC {\cyrl }\IeC {\cyru }\IeC {\cyrerev }\IeC {\cyrishrt }\IeC {\cyrl }\IeC {\cyre }\IeC {\cyrr }\IeC {\cyro }\IeC {\cyrv }\IeC {\cyro }\IeC {\cyrs }\IeC {\cyrt }\IeC {\cyrsftsn }>>}{15}{appendix.B}
\contentsline {section}{\numberline {\CYRV }\IeC {\CYRP }\IeC {\cyrr }\IeC {\cyro }\IeC {\cyrg }\IeC {\cyrr }\IeC {\cyra }\IeC {\cyrm }\IeC {\cyrm }\IeC {\cyrn }\IeC {\cyrery }\IeC {\cyrishrt } \IeC {\cyrk }\IeC {\cyro }\IeC {\cyrd } \IeC {\cyrz }\IeC {\cyra }\IeC {\cyrd }\IeC {\cyra }\IeC {\cyrch }\IeC {\cyri } <<\IeC {\CYREREV }\IeC {\cyrishrt }\IeC {\cyrl }\IeC {\cyre }\IeC {\cyrr }\IeC {\cyro }\IeC {\cyrv } \IeC {\cyrp }\IeC {\cyru }\IeC {\cyrt }\IeC {\cyrsftsn }>>}{18}{appendix.C}
\contentsfinish 
